[
  {
    "marka": "Ford",
    "modele": [
      "Focus",
      "Mustang"
    ]
  },
  {
    "marka": "BMW",
    "modele": [
      "i3",
      "i8"
    ]
  },
  {
    "marka": "Fiat",
    "modele": [
      "Panda",
      "Tipo"
    ]
  }
]